generated/SystemTop.vcd
$date
2023-11-27T08:31+0000
$end
$version
0.2
$end
$comment

$end
$timescale 1ns  $end
$scope module SystemTop $end
 $var wire 32 # io_testerDataMemDataRead $end
 $var wire 1 / io_testerDataMemWriteEnable $end
 $var wire 32 S io_testerDataMemDataWrite $end
 $var wire 1 T io_start $end
 $var wire 1 ^ io_testerDataMemEnable $end
 $var wire 1 r clock $end
 $var wire 16 } io_testerDataMemAddress $end
 $var wire 1 ~ dataMemory $end
 $var wire 1 "# accelerator $end
 $var wire 1 ") io_done $end
 $var wire 1 "D reset $end
  $scope module dataMemory $end
   $var wire 32 ! _GEN_11 $end
   $var wire 32 & io_testerDataWrite $end
   $var wire 1 - clock $end
   $var wire 1 0 io_testerEnable $end
   $var wire 32 A io_dataRead $end
   $var wire 32 B io_dataWrite $end
   $var wire 1 Y io_testerWriteEnable $end
   $var wire 32 [ _GEN_5 $end
   $var wire 16 m io_address $end
   $var wire 1 p io_writeEnable $end
   $var wire 16 "( io_testerAddress $end
   $var wire 32 ", memory $end
   $var wire 32 "9 io_testerDataRead $end
    $scope module memory $end
      $scope module _T_1 $end
       $var wire 16 % addr $end
       $var wire 16 , pipeline_addr_0 $end
       $var wire 1 3 en $end
       $var wire 32 P data $end
       $var wire 32 g pipeline_data_0 $end
       $var wire 1 "$ pipeline_valid_0 $end
       $var wire 1 "/ valid $end
       $var wire 1 "; mask $end
       $var wire 1 "G clk $end
      $upscope $end
      $scope module _T $end
       $var wire 1 ) clk $end
       $var wire 16 l addr $end
       $var wire 1 o en $end
       $var wire 32 "@ data $end
      $upscope $end
      $scope module _T_3 $end
       $var wire 1 1 pipeline_valid_0 $end
       $var wire 1 6 en $end
       $var wire 1 7 mask $end
       $var wire 16 ; pipeline_addr_0 $end
       $var wire 16 V addr $end
       $var wire 1 j clk $end
       $var wire 32 "! pipeline_data_0 $end
       $var wire 32 ". data $end
       $var wire 1 "R valid $end
      $upscope $end
      $scope module _T_2 $end
       $var wire 1 < clk $end
       $var wire 16 C addr $end
       $var wire 32 d data $end
       $var wire 1 y en $end
      $upscope $end
    $upscope $end
  $upscope $end
  $scope module accelerator $end
   $var wire 32 " _GEN_2 $end
   $var wire 32 $ _GEN_13 $end
   $var wire 32 ' _GEN_28 $end
   $var wire 32 ( _GEN_34 $end
   $var wire 32 * _GEN_5 $end
   $var wire 4 + _GEN_78 $end
   $var wire 4 . _GEN_16 $end
   $var wire 32 2 yReg $end
   $var wire 32 4 _GEN_72 $end
   $var wire 32 5 _GEN_66 $end
   $var wire 32 8 dataReg $end
   $var wire 32 9 _GEN_8 $end
   $var wire 32 : _GEN_51 $end
   $var wire 32 = cxReg $end
   $var wire 4 > _GEN_48 $end
   $var wire 32 ? _GEN_33 $end
   $var wire 32 @ _GEN_54 $end
   $var wire 4 D _GEN_69 $end
   $var wire 4 E _GEN_60 $end
   $var wire 1 F _GEN_57 $end
   $var wire 4 G _GEN_15 $end
   $var wire 4 H _GEN_42 $end
   $var wire 4 I _GEN_36 $end
   $var wire 32 J _GEN_63 $end
   $var wire 4 K _GEN_21 $end
   $var wire 1 L reset $end
   $var wire 32 M _GEN_24 $end
   $var wire 4 N _GEN_30 $end
   $var wire 32 O _GEN_7 $end
   $var wire 32 Q _GEN_18 $end
   $var wire 32 R _GEN_45 $end
   $var wire 32 U _GEN_74 $end
   $var wire 1 W _GEN_27 $end
   $var wire 64 X _GEN_80 $end
   $var wire 4 Z _GEN_12 $end
   $var wire 4 \ stateReg $end
   $var wire 32 ] _GEN_1 $end
   $var wire 32 _ _GEN_77 $end
   $var wire 64 ` _GEN_4 $end
   $var wire 1 a _T $end
   $var wire 32 b _GEN_62 $end
   $var wire 4 c _GEN_56 $end
   $var wire 16 e _GEN_38 $end
   $var wire 1 f _GEN_50 $end
   $var wire 32 h _GEN_44 $end
   $var wire 32 i _GEN_59 $end
   $var wire 32 k _GEN_71 $end
   $var wire 32 n _GEN_65 $end
   $var wire 4 q stepReg $end
   $var wire 1 s _GEN_32 $end
   $var wire 1 t _GEN_47 $end
   $var wire 16 u _GEN_53 $end
   $var wire 1 v io_done $end
   $var wire 1 w _GEN_68 $end
   $var wire 4 x _GEN_26 $end
   $var wire 1 z io_writeEnable $end
   $var wire 4 { _GEN_35 $end
   $var wire 32 | _GEN_41 $end
   $var wire 32 "" _GEN_29 $end
   $var wire 32 "% _GEN_14 $end
   $var wire 4 "& _GEN_20 $end
   $var wire 32 "' xReg $end
   $var wire 1 "* _GEN_17 $end
   $var wire 32 "+ io_dataWrite $end
   $var wire 32 "- cyReg $end
   $var wire 4 "0 _GEN_6 $end
   $var wire 32 "1 _GEN_23 $end
   $var wire 4 "2 _GEN_0 $end
   $var wire 16 "3 io_address $end
   $var wire 1 "4 clock $end
   $var wire 4 "5 _GEN_9 $end
   $var wire 1 "6 io_start $end
   $var wire 32 "7 io_dataRead $end
   $var wire 64 "8 _GEN_73 $end
   $var wire 4 ": _GEN_67 $end
   $var wire 1 "< _GEN_61 $end
   $var wire 16 "= _GEN_49 $end
   $var wire 32 "> _GEN_40 $end
   $var wire 32 "? _GEN_55 $end
   $var wire 32 "A _GEN_3 $end
   $var wire 32 "B _GEN_76 $end
   $var wire 32 "C _GEN_70 $end
   $var wire 1 "E _GEN_37 $end
   $var wire 16 "F _GEN_43 $end
   $var wire 64 "H _GEN_58 $end
   $var wire 1 "I _GEN_22 $end
   $var wire 16 "J _GEN_64 $end
   $var wire 4 "K _GEN_31 $end
   $var wire 16 "L addressReg $end
   $var wire 4 "M _GEN_46 $end
   $var wire 32 "N _GEN_52 $end
   $var wire 16 "O _GEN_10 $end
   $var wire 32 "P _GEN_19 $end
   $var wire 4 "Q _GEN_25 $end
  $upscope $end
$upscope $end
$enddefinitions $end
$dumpvars
b00000000000000000000000000000000 n
b00000000000000000000000000000000 '
b00000000000000000000000000000000 ">
0o
17
b00000000000000000000000000000000 O
b00000000000000000000000000000000 :
b00000000000000000000000000000000 Q
b0000000000000000 l
b00000000000000000000000000000000 h
b0000 K
b00000000000000000000000000000000 ".
b0000 .
b0000000000000000 %
0")
0~
b00000000000000000000000000000000 b
0a
0L
b0000 E
0/
0"#
0F
b0000 ":
b0000 {
0)
0z
0r
0"<
b00000000000000000000000000000000 A
b00000000000000000000000000000000 $
b00000000000000000000000000000000 "C
b0000000000000000 "J
0W
b0000 "K
1";
0v
b0000 Z
b0000 "M
b00000000000000000000000000000000 (
b0000 "0
b0000 q
b0000000000000000 u
0p
b0000000000000000000000000000000000000000000000000000000000000000 "8
b0000000000000000 C
b00000000000000000000000000000000 ?
06
b00000000000000000000000000000000 "N
b00000000000000000000000000000000 k
b00000000000000000000000000000000 "9
0"4
b00000000000000000000000000000000 9
b00000000000000000000000000000000 P
b0000 "&
b00000000000000000000000000000000 |
0f
0"E
b00000000000000000000000000000000 J
b0000000000000000000000000000000000000000000000000000000000000000 `
b00000000000000000000000000000000 i
0"*
0w
b00000000000000000000000000000000 "1
00
0"$
b0000000000000000 "O
b00000000000000000000000000000000 "@
b00000000000000000000000000000000 "+
b0000 H
b00000000000000000000000000000000 _
b00000000000000000000000000000000 "%
b00000000000000000000000000000000 B
b0000 "5
b00000000000000000000000000000000 "'
b00000000000000000000000000000000 [
b0000 >
b00000000000000000000000000000000 S
b00000000000000000000000000000000 "!
b0000000000000000 "(
b00000000000000000000000000000000 !
b00000000000000000000000000000000 U
0T
b00000000000000000000000000000000 8
b00000000000000000000000000000000 #
b00000000000000000000000000000000 2
0"D
0"/
b00000000000000000000000000000000 4
03
b0000000000000000 "=
0-
b00000000000000000000000000000000 M
b0000000000000000 }
b0000000000000000000000000000000000000000000000000000000000000000 "H
b0000 \
b0000 G
b00000000000000000000000000000000 d
01
b00000000000000000000000000000000 *
b0000 I
b00000000000000000000000000000000 "A
b00000000000000000000000000000000 ",
b0000 "Q
b0000000000000000 "3
0t
0"6
b00000000000000000000000000000000 &
b0000000000000000 "L
0Y
b0000000000000000 ,
0<
b00000000000000000000000000000000 =
b00000000000000000000000000000000 "?
b0000000000000000 "F
b00000000000000000000000000000000 "7
b00000000000000000000000000000000 ""
b0000 "2
b00000000000000000000000000000000 "
0j
b0000 N
0"I
b00000000000000000000000000000000 "P
b00000000000000000000000000000000 g
b00000000000000000000000000000000 R
b0000000000000000 V
b00000000000000000000000000000000 "-
b00000000000000000000000000000000 5
b0000000000000000 m
0"G
b0000000000000000 ;
b0000 x
b0000 c
0y
b00000000000000000000000000000000 ]
b0000 +
b00000000000000000000000000000000 @
b00000000000000000000000000000000 "B
0^
0s
0"R
b0000000000000000000000000000000000000000000000000000000000000000 X
b0000000000000000 e
b0000 D
$end
#0
1"D
1y
b1000 "0
b00000000000000000000000000000001 9
b0001 "5
1a
1L
b0000000000000001 "O
#1
1-
1r
1<
1"4
1"G
1j
1)
#6
0-
0r
0<
0"4
0"G
0j
0)
#11
1-
1r
1<
1"4
1"G
1j
1)
#16
0-
0r
0<
0"4
0"G
0j
0)
#21
1-
1r
1<
1"4
1"G
1j
1)
#26
0-
0r
0<
0"4
0"G
0j
0)
#31
1-
1r
1<
1"4
1"G
1j
1)
#36
0-
0r
0<
0"4
0"G
0j
0)
#41
1-
1r
1<
1"4
1"G
1j
1)
#46
13
0-
0<
1Y
0"4
1o
0L
0j
1/
0)
10
0"D
0r
1"/
0y
0"G
1^
#51
1-
1r
1<
1"$
1"4
1"G
1j
1)
#56
0-
0r
0<
b0000000000000001 %
b0000000000000001 }
b0000000000000001 "(
0"4
b0000000000000001 l
0"G
0j
0)
#61
1-
1r
1<
1"4
1"G
1j
b0000000000000001 ,
1)
#66
0-
0r
0<
b0000000000000010 %
b0000000000000010 }
b0000000000000010 "(
0"4
b0000000000000010 l
0"G
0j
0)
#71
1-
1r
1<
1"4
1"G
1j
b0000000000000010 ,
1)
#76
0-
0r
0<
b0000000000000011 %
b0000000000000011 }
b0000000000000011 "(
0"4
b0000000000000011 l
0"G
0j
0)
#81
1-
1r
1<
1"4
1"G
1j
b0000000000000011 ,
1)
#86
0-
0r
0<
b0000000000000100 %
b0000000000000100 }
b0000000000000100 "(
0"4
b0000000000000100 l
0"G
0j
0)
#91
1-
1r
1<
1"4
1"G
1j
b0000000000000100 ,
1)
#96
0-
0r
0<
b0000000000000101 %
b0000000000000101 }
b0000000000000101 "(
0"4
b0000000000000101 l
0"G
0j
0)
#101
1-
1r
1<
1"4
1"G
1j
b0000000000000101 ,
1)
#106
0-
0r
0<
b0000000000000110 %
b0000000000000110 }
b0000000000000110 "(
0"4
b0000000000000110 l
0"G
0j
0)
#111
1-
1r
1<
1"4
1"G
1j
b0000000000000110 ,
1)
#116
0-
0r
0<
b0000000000000111 %
b0000000000000111 }
b0000000000000111 "(
0"4
b0000000000000111 l
0"G
0j
0)
#121
1-
1r
1<
1"4
1"G
1j
b0000000000000111 ,
1)
#126
0-
0r
0<
b0000000000001000 %
b0000000000001000 }
b0000000000001000 "(
0"4
b0000000000001000 l
0"G
0j
0)
#131
1-
1r
1<
1"4
1"G
1j
b0000000000001000 ,
1)
#136
0-
0r
0<
b0000000000001001 %
b0000000000001001 }
b0000000000001001 "(
0"4
b0000000000001001 l
0"G
0j
0)
#141
1-
1r
1<
1"4
1"G
1j
b0000000000001001 ,
1)
#146
0-
0r
0<
b0000000000001010 %
b0000000000001010 }
b0000000000001010 "(
0"4
b0000000000001010 l
0"G
0j
0)
#151
1-
1r
1<
1"4
1"G
1j
b0000000000001010 ,
1)
#156
0-
0r
0<
b0000000000001011 %
b0000000000001011 }
b0000000000001011 "(
0"4
b0000000000001011 l
0"G
0j
0)
#161
1-
1r
1<
1"4
1"G
1j
b0000000000001011 ,
1)
#166
0-
0r
0<
b0000000000001100 %
b0000000000001100 }
b0000000000001100 "(
0"4
b0000000000001100 l
0"G
0j
0)
#171
1-
1r
1<
1"4
1"G
1j
b0000000000001100 ,
1)
#176
0-
0r
0<
b0000000000001101 %
b0000000000001101 }
b0000000000001101 "(
0"4
b0000000000001101 l
0"G
0j
0)
#181
1-
1r
1<
1"4
1"G
1j
b0000000000001101 ,
1)
#186
0-
0r
0<
b0000000000001110 %
b0000000000001110 }
b0000000000001110 "(
0"4
b0000000000001110 l
0"G
0j
0)
#191
1-
1r
1<
1"4
1"G
1j
b0000000000001110 ,
1)
#196
0-
0r
0<
b0000000000001111 %
b0000000000001111 }
b0000000000001111 "(
0"4
b0000000000001111 l
0"G
0j
0)
#201
1-
1r
1<
1"4
1"G
1j
b0000000000001111 ,
1)
#206
0-
0r
0<
b0000000000010000 %
b0000000000010000 }
b0000000000010000 "(
0"4
b0000000000010000 l
0"G
0j
0)
#211
1-
1r
1<
1"4
1"G
1j
b0000000000010000 ,
1)
#216
0-
0r
0<
b0000000000010001 %
b0000000000010001 }
b0000000000010001 "(
0"4
b0000000000010001 l
0"G
0j
0)
#221
1-
1r
1<
1"4
1"G
1j
b0000000000010001 ,
1)
#226
0-
0r
0<
b0000000000010010 %
b0000000000010010 }
b0000000000010010 "(
0"4
b0000000000010010 l
0"G
0j
0)
#231
1-
1r
1<
1"4
1"G
1j
b0000000000010010 ,
1)
#236
0-
0r
0<
b0000000000010011 %
b0000000000010011 }
b0000000000010011 "(
0"4
b0000000000010011 l
0"G
0j
0)
#241
1-
1r
1<
1"4
1"G
1j
b0000000000010011 ,
1)
#246
0-
0r
0<
b0000000000010100 %
b0000000000010100 }
b0000000000010100 "(
0"4
b0000000000010100 l
0"G
0j
0)
#251
1-
1r
1<
1"4
1"G
1j
b0000000000010100 ,
1)
#256
0-
0r
0<
b0000000000010101 %
b0000000000010101 }
b0000000000010101 "(
0"4
b0000000000010101 l
0"G
0j
0)
#261
1-
1r
1<
1"4
1"G
1j
b0000000000010101 ,
1)
#266
0-
0r
0<
b0000000000010110 %
b0000000000010110 }
b0000000000010110 "(
0"4
b0000000000010110 l
0"G
0j
0)
#271
1-
1r
1<
1"4
1"G
1j
b0000000000010110 ,
1)
#276
0-
0r
0<
b0000000000010111 %
b0000000000010111 }
b0000000000010111 "(
0"4
b0000000000010111 l
0"G
0j
0)
#281
1-
1r
1<
1"4
1"G
1j
b0000000000010111 ,
1)
#286
0-
0r
0<
b0000000000011000 %
b0000000000011000 }
b0000000000011000 "(
0"4
b0000000000011000 l
0"G
0j
0)
#291
1-
1r
1<
1"4
1"G
1j
b0000000000011000 ,
1)
#296
0-
0r
0<
b0000000000011001 %
b0000000000011001 }
b0000000000011001 "(
0"4
b0000000000011001 l
0"G
0j
0)
#301
1-
1r
1<
1"4
1"G
1j
b0000000000011001 ,
1)
#306
0-
0r
0<
b0000000000011010 %
b0000000000011010 }
b0000000000011010 "(
0"4
b0000000000011010 l
0"G
0j
0)
#311
1-
1r
1<
1"4
1"G
1j
b0000000000011010 ,
1)
#316
0-
0r
0<
b0000000000011011 %
b0000000000011011 }
b0000000000011011 "(
0"4
b0000000000011011 l
0"G
0j
0)
#321
1-
1r
1<
1"4
1"G
1j
b0000000000011011 ,
1)
#326
0-
0r
0<
b0000000000011100 %
b0000000000011100 }
b0000000000011100 "(
0"4
b0000000000011100 l
0"G
0j
0)
#331
1-
1r
1<
1"4
1"G
1j
b0000000000011100 ,
1)
#336
0-
0r
0<
b0000000000011101 %
b0000000000011101 }
b0000000000011101 "(
0"4
b0000000000011101 l
0"G
0j
0)
#341
1-
1r
1<
1"4
1"G
1j
b0000000000011101 ,
1)
#346
0-
0r
0<
b0000000000011110 %
b0000000000011110 }
b0000000000011110 "(
0"4
b0000000000011110 l
0"G
0j
0)
#351
1-
1r
1<
1"4
1"G
1j
b0000000000011110 ,
1)
#356
0-
0r
0<
b0000000000011111 %
b0000000000011111 }
b0000000000011111 "(
0"4
b0000000000011111 l
0"G
0j
0)
#361
1-
1r
1<
1"4
1"G
1j
b0000000000011111 ,
1)
#366
0-
0r
0<
b0000000000100000 %
b0000000000100000 }
b0000000000100000 "(
0"4
b0000000000100000 l
0"G
0j
0)
#371
1-
1r
1<
1"4
1"G
1j
b0000000000100000 ,
1)
#376
0-
0r
0<
b0000000000100001 %
b0000000000100001 }
b0000000000100001 "(
0"4
b0000000000100001 l
0"G
0j
0)
#381
1-
1r
1<
1"4
1"G
1j
b0000000000100001 ,
1)
#386
0-
0r
0<
b0000000000100010 %
b0000000000100010 }
b0000000000100010 "(
0"4
b0000000000100010 l
0"G
0j
0)
#391
1-
1r
1<
1"4
1"G
1j
b0000000000100010 ,
1)
#396
0-
0r
0<
b0000000000100011 %
b0000000000100011 }
b0000000000100011 "(
0"4
b0000000000100011 l
0"G
0j
0)
#401
1-
1r
1<
1"4
1"G
1j
b0000000000100011 ,
1)
#406
0-
0r
0<
b0000000000100100 %
b0000000000100100 }
b0000000000100100 "(
0"4
b0000000000100100 l
0"G
0j
0)
#411
1-
1r
1<
1"4
1"G
1j
b0000000000100100 ,
1)
#416
0-
0r
0<
b0000000000100101 %
b0000000000100101 }
b0000000000100101 "(
0"4
b0000000000100101 l
0"G
0j
0)
#421
1-
1r
1<
1"4
1"G
1j
b0000000000100101 ,
1)
#426
0-
0r
0<
b0000000000100110 %
b0000000000100110 }
b0000000000100110 "(
0"4
b0000000000100110 l
0"G
0j
0)
#431
1-
1r
1<
1"4
1"G
1j
b0000000000100110 ,
1)
#436
0-
0r
0<
b0000000000100111 %
b0000000000100111 }
b0000000000100111 "(
0"4
b0000000000100111 l
0"G
0j
0)
#441
1-
1r
1<
1"4
1"G
1j
b0000000000100111 ,
1)
#446
0-
0r
0<
b0000000000101000 %
b0000000000101000 }
b0000000000101000 "(
0"4
b0000000000101000 l
0"G
0j
0)
#451
1-
1r
1<
1"4
1"G
1j
b0000000000101000 ,
1)
#456
0-
0r
0<
b0000000000101001 %
b0000000000101001 }
b0000000000101001 "(
0"4
b0000000000101001 l
0"G
0j
0)
#461
1-
1r
1<
1"4
1"G
1j
b0000000000101001 ,
1)
#466
0-
0r
0<
b0000000000101010 %
b0000000000101010 }
b0000000000101010 "(
0"4
b0000000000101010 l
0"G
0j
0)
#471
1-
1r
1<
1"4
1"G
1j
b0000000000101010 ,
1)
#476
0-
0r
0<
b0000000000101011 %
b0000000000101011 }
b0000000000101011 "(
0"4
b0000000000101011 l
0"G
0j
0)
#481
1-
1r
1<
1"4
1"G
1j
b0000000000101011 ,
1)
#486
0-
0r
0<
b0000000000101100 %
b0000000000101100 }
b0000000000101100 "(
0"4
b0000000000101100 l
0"G
0j
0)
#491
1-
1r
1<
1"4
1"G
1j
b0000000000101100 ,
1)
#496
0-
0r
0<
b0000000000101101 %
b0000000000101101 }
b0000000000101101 "(
0"4
b0000000000101101 l
0"G
0j
0)
#501
1-
1r
1<
1"4
1"G
1j
b0000000000101101 ,
1)
#506
0-
0r
0<
b0000000000101110 %
b0000000000101110 }
b0000000000101110 "(
0"4
b0000000000101110 l
0"G
0j
0)
#511
1-
1r
1<
1"4
1"G
1j
b0000000000101110 ,
1)
#516
0-
0r
0<
b0000000000101111 %
b0000000000101111 }
b0000000000101111 "(
0"4
b0000000000101111 l
0"G
0j
0)
#521
1-
1r
1<
1"4
1"G
1j
b0000000000101111 ,
1)
#526
0-
0r
0<
b0000000000110000 %
b0000000000110000 }
b0000000000110000 "(
0"4
b0000000000110000 l
0"G
0j
0)
#531
1-
1r
1<
1"4
1"G
1j
b0000000000110000 ,
1)
#536
0-
0r
0<
b0000000000110001 %
b0000000000110001 }
b0000000000110001 "(
0"4
b0000000000110001 l
0"G
0j
0)
#541
1-
1r
1<
1"4
1"G
1j
b0000000000110001 ,
1)
#546
0-
0r
0<
b0000000000110010 %
b0000000000110010 }
b0000000000110010 "(
0"4
b0000000000110010 l
0"G
0j
0)
#551
1-
1r
1<
1"4
1"G
1j
b0000000000110010 ,
1)
#556
0-
0r
0<
b0000000000110011 %
b0000000000110011 }
b0000000000110011 "(
0"4
b0000000000110011 l
0"G
0j
0)
#561
1-
1r
1<
1"4
1"G
1j
b0000000000110011 ,
1)
#566
0-
0r
0<
b0000000000110100 %
b0000000000110100 }
b0000000000110100 "(
0"4
b0000000000110100 l
0"G
0j
0)
#571
1-
1r
1<
1"4
1"G
1j
b0000000000110100 ,
1)
#576
0-
0r
0<
b0000000000110101 %
b0000000000110101 }
b0000000000110101 "(
0"4
b0000000000110101 l
0"G
0j
0)
#581
1-
1r
1<
1"4
1"G
1j
b0000000000110101 ,
1)
#586
0-
0r
0<
b0000000000110110 %
b0000000000110110 }
b0000000000110110 "(
0"4
b0000000000110110 l
0"G
0j
0)
#591
1-
1r
1<
1"4
1"G
1j
b0000000000110110 ,
1)
#596
0-
0r
0<
b0000000000110111 %
b0000000000110111 }
b0000000000110111 "(
0"4
b0000000000110111 l
0"G
0j
0)
#601
1-
1r
1<
1"4
1"G
1j
b0000000000110111 ,
1)
#606
0-
0r
0<
b0000000000111000 %
b0000000000111000 }
b0000000000111000 "(
0"4
b0000000000111000 l
0"G
0j
0)
#611
1-
1r
1<
1"4
1"G
1j
b0000000000111000 ,
1)
#616
0-
0r
0<
b0000000000111001 %
b0000000000111001 }
b0000000000111001 "(
0"4
b0000000000111001 l
0"G
0j
0)
#621
1-
1r
1<
1"4
1"G
1j
b0000000000111001 ,
1)
#626
0-
0r
0<
b0000000000111010 %
b0000000000111010 }
b0000000000111010 "(
0"4
b0000000000111010 l
0"G
0j
0)
#631
1-
1r
1<
1"4
1"G
1j
b0000000000111010 ,
1)
#636
0-
0r
0<
b0000000000111011 %
b0000000000111011 }
b0000000000111011 "(
0"4
b0000000000111011 l
0"G
0j
0)
#641
1-
1r
1<
1"4
1"G
1j
b0000000000111011 ,
1)
#646
0-
0r
0<
b0000000000111100 %
b0000000000111100 }
b0000000000111100 "(
0"4
b0000000000111100 l
0"G
0j
0)
#651
1-
1r
1<
1"4
1"G
1j
b0000000000111100 ,
1)
#656
0-
0r
0<
b0000000000111101 %
b0000000000111101 }
b0000000000111101 "(
0"4
b0000000000111101 l
0"G
0j
0)
#661
1-
1r
1<
1"4
1"G
1j
b0000000000111101 ,
1)
#666
0-
0r
0<
b0000000000111110 %
b0000000000111110 }
b0000000000111110 "(
0"4
b0000000000111110 l
0"G
0j
0)
#671
1-
1r
1<
1"4
1"G
1j
b0000000000111110 ,
1)
#676
0-
0r
0<
b0000000000111111 %
b0000000000111111 }
b0000000000111111 "(
0"4
b0000000000111111 l
0"G
0j
0)
#681
1-
1r
1<
1"4
1"G
1j
b0000000000111111 ,
1)
#686
0-
0r
0<
b0000000001000000 %
b0000000001000000 }
b0000000001000000 "(
0"4
b0000000001000000 l
0"G
0j
0)
#691
1-
1r
1<
1"4
1"G
1j
b0000000001000000 ,
1)
#696
0-
0r
0<
b0000000001000001 %
b0000000001000001 }
b0000000001000001 "(
0"4
b0000000001000001 l
0"G
0j
0)
#701
1-
1r
1<
1"4
1"G
1j
b0000000001000001 ,
1)
#706
0-
0r
0<
b0000000001000010 %
b0000000001000010 }
b0000000001000010 "(
0"4
b0000000001000010 l
0"G
0j
0)
#711
1-
1r
1<
1"4
1"G
1j
b0000000001000010 ,
1)
#716
0-
0r
0<
b0000000001000011 %
b0000000001000011 }
b0000000001000011 "(
0"4
b0000000001000011 l
0"G
0j
0)
#721
1-
1r
1<
1"4
1"G
1j
b0000000001000011 ,
1)
#726
0-
0r
0<
b0000000001000100 %
b0000000001000100 }
b0000000001000100 "(
0"4
b0000000001000100 l
0"G
0j
0)
#731
1-
1r
1<
1"4
1"G
1j
b0000000001000100 ,
1)
#736
0-
0r
0<
b0000000001000101 %
b0000000001000101 }
b0000000001000101 "(
0"4
b0000000001000101 l
0"G
0j
0)
#741
1-
1r
1<
1"4
1"G
1j
b0000000001000101 ,
1)
#746
0-
0r
0<
b0000000001000110 %
b0000000001000110 }
b0000000001000110 "(
0"4
b0000000001000110 l
0"G
0j
0)
#751
1-
1r
1<
1"4
1"G
1j
b0000000001000110 ,
1)
#756
0-
0r
0<
b0000000001000111 %
b0000000001000111 }
b0000000001000111 "(
0"4
b0000000001000111 l
0"G
0j
0)
#761
1-
1r
1<
1"4
1"G
1j
b0000000001000111 ,
1)
#766
0-
0r
0<
b0000000001001000 %
b0000000001001000 }
b0000000001001000 "(
0"4
b0000000001001000 l
0"G
0j
0)
#771
1-
1r
1<
1"4
1"G
1j
b0000000001001000 ,
1)
#776
0-
0r
0<
b0000000001001001 %
b0000000001001001 }
b0000000001001001 "(
0"4
b0000000001001001 l
0"G
0j
0)
#781
1-
1r
1<
1"4
1"G
1j
b0000000001001001 ,
1)
#786
0-
0r
0<
b0000000001001010 %
b0000000001001010 }
b0000000001001010 "(
0"4
b0000000001001010 l
0"G
0j
0)
#791
1-
1r
1<
1"4
1"G
1j
b0000000001001010 ,
1)
#796
0-
0r
0<
b0000000001001011 %
b0000000001001011 }
b0000000001001011 "(
0"4
b0000000001001011 l
0"G
0j
0)
#801
1-
1r
1<
1"4
1"G
1j
b0000000001001011 ,
1)
#806
0-
0r
0<
b0000000001001100 %
b0000000001001100 }
b0000000001001100 "(
0"4
b0000000001001100 l
0"G
0j
0)
#811
1-
1r
1<
1"4
1"G
1j
b0000000001001100 ,
1)
#816
0-
0r
0<
b0000000001001101 %
b0000000001001101 }
b0000000001001101 "(
0"4
b0000000001001101 l
0"G
0j
0)
#821
1-
1r
1<
1"4
1"G
1j
b0000000001001101 ,
1)
#826
0-
0r
0<
b0000000001001110 %
b0000000001001110 }
b0000000001001110 "(
0"4
b0000000001001110 l
0"G
0j
0)
#831
1-
1r
1<
1"4
1"G
1j
b0000000001001110 ,
1)
#836
0-
0r
0<
b0000000001001111 %
b0000000001001111 }
b0000000001001111 "(
0"4
b0000000001001111 l
0"G
0j
0)
#841
1-
1r
1<
1"4
1"G
1j
b0000000001001111 ,
1)
#846
0-
0r
0<
b0000000001010000 %
b0000000001010000 }
b0000000001010000 "(
0"4
b0000000001010000 l
0"G
0j
0)
#851
1-
1r
1<
1"4
1"G
1j
b0000000001010000 ,
1)
#856
0-
0r
0<
b0000000001010001 %
b0000000001010001 }
b0000000001010001 "(
0"4
b0000000001010001 l
0"G
0j
0)
#861
1-
1r
1<
1"4
1"G
1j
b0000000001010001 ,
1)
#866
0-
0r
0<
b0000000001010010 %
b0000000001010010 }
b0000000001010010 "(
0"4
b0000000001010010 l
0"G
0j
0)
#871
1-
1r
1<
1"4
1"G
1j
b0000000001010010 ,
1)
#876
0-
0r
0<
b0000000001010011 %
b0000000001010011 }
b0000000001010011 "(
0"4
b0000000001010011 l
0"G
0j
0)
#881
1-
1r
1<
1"4
1"G
1j
b0000000001010011 ,
1)
#886
0-
0r
0<
b0000000001010100 %
b0000000001010100 }
b0000000001010100 "(
0"4
b0000000001010100 l
0"G
0j
0)
#891
1-
1r
1<
1"4
1"G
1j
b0000000001010100 ,
1)
#896
0-
0r
0<
b0000000001010101 %
b0000000001010101 }
b0000000001010101 "(
0"4
b0000000001010101 l
0"G
0j
0)
#901
1-
1r
1<
1"4
1"G
1j
b0000000001010101 ,
1)
#906
0-
0r
0<
b0000000001010110 %
b0000000001010110 }
b0000000001010110 "(
0"4
b0000000001010110 l
0"G
0j
0)
#911
1-
1r
1<
1"4
1"G
1j
b0000000001010110 ,
1)
#916
0-
0r
0<
b0000000001010111 %
b0000000001010111 }
b0000000001010111 "(
0"4
b0000000001010111 l
0"G
0j
0)
#921
1-
1r
1<
1"4
1"G
1j
b0000000001010111 ,
1)
#926
0-
0r
0<
b0000000001011000 %
b0000000001011000 }
b0000000001011000 "(
0"4
b0000000001011000 l
0"G
0j
0)
#931
1-
1r
1<
1"4
1"G
1j
b0000000001011000 ,
1)
#936
0-
0r
0<
b0000000001011001 %
b0000000001011001 }
b0000000001011001 "(
0"4
b0000000001011001 l
0"G
0j
0)
#941
1-
1r
1<
1"4
1"G
1j
b0000000001011001 ,
1)
#946
0-
0r
0<
b0000000001011010 %
b0000000001011010 }
b0000000001011010 "(
0"4
b0000000001011010 l
0"G
0j
0)
#951
1-
1r
1<
1"4
1"G
1j
b0000000001011010 ,
1)
#956
0-
0r
0<
b0000000001011011 %
b0000000001011011 }
b0000000001011011 "(
0"4
b0000000001011011 l
0"G
0j
0)
#961
1-
1r
1<
1"4
1"G
1j
b0000000001011011 ,
1)
#966
0-
0r
0<
b0000000001011100 %
b0000000001011100 }
b0000000001011100 "(
0"4
b0000000001011100 l
0"G
0j
0)
#971
1-
1r
1<
1"4
1"G
1j
b0000000001011100 ,
1)
#976
0-
0r
0<
b0000000001011101 %
b0000000001011101 }
b0000000001011101 "(
0"4
b0000000001011101 l
0"G
0j
0)
#981
1-
1r
1<
1"4
1"G
1j
b0000000001011101 ,
1)
#986
0-
0r
0<
b0000000001011110 %
b0000000001011110 }
b0000000001011110 "(
0"4
b0000000001011110 l
0"G
0j
0)
#991
1-
1r
1<
1"4
1"G
1j
b0000000001011110 ,
1)
#996
0-
0<
b0000000001011111 %
b00000000000000000000000011111111 &
b0000000001011111 }
b00000000000000000000000011111111 S
0"4
b00000000000000000000000011111111 [
0j
0)
0r
b0000000001011111 "(
b00000000000000000000000011111111 #
b0000000001011111 l
0"G
b00000000000000000000000011111111 "9
b00000000000000000000000011111111 P
#1001
1-
1r
1<
b00000000000000000000000011111111 g
1"4
1"G
1j
b0000000001011111 ,
1)
b00000000000000000000000011111111 "@
#1006
0-
0<
b0000000001100000 %
b00000000000000000000000000000000 &
b0000000001100000 }
b00000000000000000000000000000000 S
0"4
b00000000000000000000000000000000 [
0j
0)
0r
b0000000001100000 "(
b00000000000000000000000000000000 #
b0000000001100000 l
0"G
b00000000000000000000000000000000 "9
b00000000000000000000000000000000 P
b00000000000000000000000000000000 "@
#1011
1-
1r
1<
b00000000000000000000000000000000 g
1"4
1"G
1j
b0000000001100000 ,
1)
